{
  "replaces": [
    {
      "what": "[data-popup-id='online-record'] .popup__content",
      "data": "<div class='popup__content popup__content--form popup__content--form-3'><div class='popup__title'>Онлайн запись</div><form class='popup__body'><div class='form__field form-group has-error'><input class='form__input form-control' type='text' placeholder='ФИО' name='name'><div class='form__error help-block'>Ошибка! Введите текст </div></div><div class='form__field form-group has-error'> <input class='form__input form-control phone-mask' type='text' placeholder='Телефон' name='name'><div class='form__error help-block'> Ошибка! Введите номет телефона </div></div><div class='form__field form-group date-field-2'> <input class='form__input form-control' type='text' placeholder='Дата и время посещения' name='birthday'><div class='form__error help-block'> Ошибка! Введите текст </div></div><div class='form__field form-group'> <div class='c_dropdown c_dropdown-selectable form-select' data-selected-answer-id='0'><input type='text' class='form-control' aria-required='true'><div class='c_dropdown__title'> <div class='c_dropdown__descr'> Салон: </div><div class='c_dropdown__selected'> Выберите </div><div class='c_dropdown__arrow'></div></div><div class='c_dropdown__options'> <ul class='c_dropdown__options_inner'> <li class='c_dropdown__option' data-answer-id='1'>Хрещатик</li><li class='c_dropdown__option' data-answer-id='2'>Большая Васильковская</li><li class='c_dropdown__option' data-answer-id='3'>Проспект Победы</li></ul> </div></div><div class='form__error help-block'> Ошибка! Введите текст </div></div><div class='form__field form-group'> <div class='c_dropdown c_dropdown-selectable form-select' data-selected-answer-id='0'><input type='text' class='form-control' aria-required='true'><div class='c_dropdown__title'> <div class='c_dropdown__descr'> Направление услуг: </div><div class='c_dropdown__selected'> Выберите </div><div class='c_dropdown__arrow'></div></div><div class='c_dropdown__options'> <ul class='c_dropdown__options_inner'><li class='c_dropdown__option' data-answer-id='1'>Парикмахерские услуги</li><li class='c_dropdown__option' data-answer-id=''>Косметология</li><li class='c_dropdown__option' data-answer-id='3'>Маникюр</li><li class='c_dropdown__option' data-answer-id='4'>Визаж</li></ul> </div></div><div class='form__error help-block'> Ошибка! Введите текст </div></div><div class='form__field form-group'> <div class='c_dropdown c_dropdown-selectable form-select' data-selected-answer-id='0'><input type='text' class='form-control' aria-required='true'><div class='c_dropdown__title'> <div class='c_dropdown__descr'> Услуга: </div><div class='c_dropdown__selected'> Выберите </div><div class='c_dropdown__arrow'></div></div><div class='c_dropdown__options'> <ul class='c_dropdown__options_inner'><li class='c_dropdown__option' data-answer-id='1'>Мужская стрижка</li><li class='c_dropdown__option' data-answer-id=''>Женская стрижка</li><li class='c_dropdown__option' data-answer-id='3'>Лечение волос</li><li class='c_dropdown__option' data-answer-id='4'>Укладка</li></ul> </div></div><div class='form__error help-block'> Ошибка! Введите текст </div></div><div class='form__field form-group'> <div class='c_dropdown c_dropdown-selectable form-select' data-selected-answer-id='0'><input type='text' class='form-control' aria-required='true'><div class='c_dropdown__title'> <div class='c_dropdown__descr'> Мастер: </div><div class='c_dropdown__selected'> Выберите </div><div class='c_dropdown__arrow'></div></div><div class='c_dropdown__options'> <ul class='c_dropdown__options_inner'><li class='c_dropdown__option' data-answer-id='1'>Иванова</li><li class='c_dropdown__option' data-answer-id='2'>Петрова</li><li class='c_dropdown__option' data-answer-id='2'>Петренко</li><li class='c_dropdown__option' data-answer-id='2'>Златогурська</li><li class='c_dropdown__option' data-answer-id='2'>Шетько</li><li class='c_dropdown__option' data-answer-id='2'>Порошенко</li><li class='c_dropdown__option' data-answer-id='2'>Кубенко</li><li class='c_dropdown__option' data-answer-id='3'>Шалько</li></ul> </div></div><div class='form__error help-block'> Ошибка! Введите текст </div></div><div class='form__field form-group'> <input class='form__input form-control' type='text' placeholder='Ваш комментарий' name='additional'><div class='form__error help-block'> Ошибка! Введите текст </div></div><button class='form__submit' type='submit'><div class='btn btn-white'><div> <div class='btn__bg_animation'></div><div class='btn__dots'><div class='btn__dot'></div><div class='btn__dot'></div><div class='btn__dot'></div></div><span class='btn__text'>отправить</span> </div></div></button></form></div>"
    }
  ]
}