<svg id="Capa_1" data-name="Capa 1" xmlns="http://www.w3.org/2000/svg" viewBox="0 0 34.8 60">
    <defs>
        <style>.cls-1{fill:#010002;}</style>
    </defs>
    <title>arrow_right</title>
    <polygon fill="#010002" points="3.9 0 0 4 26.8 30 0 56 3.9 60 34.8 30 3.9 0"/>
</svg>